src/build/module_Top_tb.vcd
$date
	Sat Oct 05 17:19:57 2024
$end
$version
	Icarus Verilog
$end
$timescale
	1ps
$end
$scope module top_module_tb $end
$var wire 7 ! segments [6:0] $end
$var wire 4 " display_select [3:0] $end
$var reg 1 # clk $end
$var reg 4 $ dip_switch [3:0] $end
$var reg 1 % input_ready1 $end
$var reg 1 & input_ready2 $end
$var reg 1 ' reset $end
$scope module uut $end
$var wire 1 # clk $end
$var wire 4 ( dip_switch [3:0] $end
$var wire 1 % input_ready1 $end
$var wire 1 & input_ready2 $end
$var wire 1 ' reset $end
$var wire 12 ) sum_result [11:0] $end
$var wire 1 * sum_ready $end
$var wire 7 + segments [6:0] $end
$var wire 1 , ready2 $end
$var wire 1 - ready1 $end
$var wire 12 . number2 [11:0] $end
$var wire 12 / number1 [11:0] $end
$var wire 4 0 display_select [3:0] $end
$var reg 2 1 current_state [1:0] $end
$var reg 1 2 enable_adder $end
$var reg 2 3 next_state [1:0] $end
$scope module adder $end
$var wire 1 # clk $end
$var wire 1 2 enable $end
$var wire 1 ' reset $end
$var wire 12 4 sum_result [11:0] $end
$var wire 1 * sum_state $end
$var wire 12 5 number2 [11:0] $end
$var wire 12 6 number1 [11:0] $end
$var reg 1 7 sum_ready $end
$var reg 12 8 sum_reg [11:0] $end
$upscope $end
$scope module display $end
$var wire 1 # clk $end
$var wire 1 ' reset $end
$var wire 12 9 sum_result [11:0] $end
$var reg 2 : current_display [1:0] $end
$var reg 4 ; display_select [3:0] $end
$var reg 4 < hundreds [3:0] $end
$var reg 20 = refresh_counter [19:0] $end
$var reg 7 > segments [6:0] $end
$var reg 4 ? tens [3:0] $end
$var reg 4 @ thousands [3:0] $end
$var reg 4 A units [3:0] $end
$scope function display_to_segments $end
$var reg 4 B digit [3:0] $end
$upscope $end
$upscope $end
$scope module input_manager1 $end
$var wire 1 # clk $end
$var wire 4 C dip_switch [3:0] $end
$var wire 1 % input_ready $end
$var wire 1 ' reset $end
$var wire 12 D number_out [11:0] $end
$var reg 4 E hundreds [3:0] $end
$var reg 1 - ready $end
$var reg 2 F state [1:0] $end
$var reg 4 G tens [3:0] $end
$var reg 4 H units [3:0] $end
$upscope $end
$scope module input_manager2 $end
$var wire 1 # clk $end
$var wire 4 I dip_switch [3:0] $end
$var wire 1 & input_ready $end
$var wire 1 ' reset $end
$var wire 12 J number_out [11:0] $end
$var reg 4 K hundreds [3:0] $end
$var reg 1 , ready $end
$var reg 2 L state [1:0] $end
$var reg 4 M tens [3:0] $end
$var reg 4 N units [3:0] $end
$upscope $end
$upscope $end
$upscope $end
$enddefinitions $end
$comment Show the parameter values. $end
$dumpall
$end
#0
$dumpvars
b0 N
b0 M
b0 L
b0 K
b0 J
b0 I
b0 H
b0 G
b0 F
b0 E
b0 D
b0 C
b0 B
b0 A
b0 @
b0 ?
b1111110 >
b0 =
b0 <
b1110 ;
b0 :
b0 9
b0 8
07
b0 6
b0 5
b0 4
b0 3
02
b0 1
b1110 0
b0 /
b0 .
0-
0,
b1111110 +
0*
b0 )
b0 (
1'
0&
0%
b0 $
0#
b1110 "
b1111110 !
$end
#1000
1#
#2000
0#
#3000
1#
#4000
0#
#5000
1#
#6000
0#
#7000
1#
#8000
0#
#9000
1#
#10000
0#
#11000
1#
#12000
0#
#13000
1#
#14000
0#
#15000
1#
#16000
0#
#17000
1#
#18000
0#
#19000
1#
#20000
0#
0'
#21000
b1 =
1#
#22000
0#
#23000
b10 =
1#
#24000
0#
#25000
b11 =
1#
#26000
0#
#27000
b100 =
1#
#28000
0#
#29000
b101 =
1#
#30000
0#
1%
b1 $
b1 (
b1 C
b1 I
#31000
b1 F
b1100100 /
b1100100 6
b1100100 D
b1 E
b110 =
1#
#32000
0#
#33000
b111 =
b10 F
b1101110 /
b1101110 6
b1101110 D
b1 G
1#
#34000
0#
#35000
1-
b0 F
b1101111 /
b1101111 6
b1101111 D
b1 H
b1000 =
1#
#36000
0#
#37000
b1001 =
b1 F
1#
#38000
0#
#39000
b10 F
b1010 =
1#
#40000
0#
0%
#41000
b1011 =
1#
#42000
0#
#43000
b1100 =
1#
#44000
0#
#45000
b1101 =
1#
#46000
0#
#47000
b1110 =
1#
#48000
0#
#49000
b1111 =
1#
#50000
0#
1%
#51000
b0 F
b10000 =
1#
#52000
0#
#53000
b10001 =
b1 F
1#
#54000
0#
#55000
b10 F
b10010 =
1#
#56000
0#
#57000
b10011 =
b0 F
1#
#58000
0#
#59000
b1 F
b10100 =
1#
#60000
0#
0%
#61000
b10101 =
1#
#62000
0#
#63000
b10110 =
1#
#64000
0#
#65000
b10111 =
1#
#66000
0#
#67000
b11000 =
1#
#68000
0#
#69000
b11001 =
1#
#70000
0#
1%
b111 $
b111 (
b111 C
b111 I
#71000
b10 F
b10101011 /
b10101011 6
b10101011 D
b111 G
b11010 =
1#
#72000
0#
#73000
b11011 =
b0 F
b10110001 /
b10110001 6
b10110001 D
b111 H
1#
#74000
0#
#75000
b1 F
b1100001001 /
b1100001001 6
b1100001001 D
b111 E
b11100 =
1#
#76000
0#
#77000
b11101 =
b10 F
1#
#78000
0#
#79000
b0 F
b11110 =
1#
#80000
0#
0%
#81000
b11111 =
1#
#82000
0#
#83000
b100000 =
1#
#84000
0#
#85000
b100001 =
1#
#86000
0#
#87000
b100010 =
1#
#88000
0#
#89000
b100011 =
1#
#90000
0#
1&
b1001 $
b1001 (
b1001 C
b1001 I
#91000
b1 L
b1110000100 .
b1110000100 5
b1110000100 J
b1001 K
b100100 =
1#
#92000
0#
#93000
b100101 =
b10 L
b1111011110 .
b1111011110 5
b1111011110 J
b1001 M
1#
#94000
0#
#95000
b1 3
1,
b0 L
b1111100111 .
b1111100111 5
b1111100111 J
b1001 N
b100110 =
1#
#96000
0#
#97000
12
b1 1
b100111 =
b1 L
1#
#98000
0#
#99000
b110 B
b1011111 !
b1011111 +
b1011111 >
b10 3
12
b110 A
b111 ?
b111 <
b1 @
b10 L
1*
17
b11011110000 )
b11011110000 4
b11011110000 9
b11011110000 8
b101000 =
1#
#100000
0#
0&
#101000
02
b10 1
b101001 =
1#
#102000
0#
#103000
b101010 =
1#
#104000
0#
#105000
b101011 =
1#
#106000
0#
#107000
b101100 =
1#
#108000
0#
#109000
b101101 =
1#
#110000
0#
1&
#111000
b0 L
b101110 =
1#
#112000
0#
#113000
b101111 =
b1 L
1#
#114000
0#
#115000
b10 L
b110000 =
1#
#116000
0#
#117000
b110001 =
b0 L
1#
#118000
0#
#119000
b1 L
b110010 =
1#
#120000
0#
0&
#121000
b110011 =
1#
#122000
0#
#123000
b110100 =
1#
#124000
0#
#125000
b110101 =
1#
#126000
0#
#127000
b110110 =
1#
#128000
0#
#129000
b110111 =
1#
#130000
0#
1&
b1000 $
b1000 (
b1000 C
b1000 I
#131000
b10 L
b1111011101 .
b1111011101 5
b1111011101 J
b1000 M
b111000 =
1#
#132000
0#
#133000
b111001 =
b0 L
b1111011100 .
b1111011100 5
b1111011100 J
b1000 N
1#
#134000
0#
#135000
b1 L
b1101111000 .
b1101111000 5
b1101111000 J
b1000 K
b111010 =
1#
#136000
0#
#137000
b111011 =
b10 L
1#
#138000
0#
#139000
b0 L
b111100 =
1#
#140000
0#
0&
#141000
b111101 =
1#
#142000
0#
#143000
b111110 =
1#
#144000
0#
#145000
b111111 =
1#
#146000
0#
#147000
b1000000 =
1#
#148000
0#
#149000
b1000001 =
1#
#150000
0#
#151000
b1000010 =
1#
#152000
0#
#153000
b1000011 =
1#
#154000
0#
#155000
b1000100 =
1#
#156000
0#
#157000
b1000101 =
1#
#158000
0#
#159000
b1000110 =
1#
#160000
0#
#161000
b1000111 =
1#
#162000
0#
#163000
b1001000 =
1#
#164000
0#
#165000
b1001001 =
1#
#166000
0#
#167000
b1001010 =
1#
#168000
0#
#169000
b1001011 =
1#
#170000
0#
#171000
b1001100 =
1#
#172000
0#
#173000
b1001101 =
1#
#174000
0#
#175000
b1001110 =
1#
#176000
0#
#177000
b1001111 =
1#
#178000
0#
#179000
b1010000 =
1#
#180000
0#
#181000
b1010001 =
1#
#182000
0#
#183000
b1010010 =
1#
#184000
0#
#185000
b1010011 =
1#
#186000
0#
#187000
b1010100 =
1#
#188000
0#
#189000
b1010101 =
1#
#190000
0#
#191000
b1010110 =
1#
#192000
0#
#193000
b1010111 =
1#
#194000
0#
#195000
b1011000 =
1#
#196000
0#
#197000
b1011001 =
1#
#198000
0#
#199000
b1011010 =
1#
#200000
0#
#201000
b1011011 =
1#
#202000
0#
#203000
b1011100 =
1#
#204000
0#
#205000
b1011101 =
1#
#206000
0#
#207000
b1011110 =
1#
#208000
0#
#209000
b1011111 =
1#
#210000
0#
#211000
b1100000 =
1#
#212000
0#
#213000
b1100001 =
1#
#214000
0#
#215000
b1100010 =
1#
#216000
0#
#217000
b1100011 =
1#
#218000
0#
#219000
b1100100 =
1#
#220000
0#
#221000
b1100101 =
1#
#222000
0#
#223000
b1100110 =
1#
#224000
0#
#225000
b1100111 =
1#
#226000
0#
#227000
b1101000 =
1#
#228000
0#
#229000
b1101001 =
1#
#230000
0#
#231000
b1101010 =
1#
#232000
0#
#233000
b1101011 =
1#
#234000
0#
#235000
b1101100 =
1#
#236000
0#
#237000
b1101101 =
1#
#238000
0#
#239000
b1101110 =
1#
